{
    "buildinfo": [
    {
        "prerun": [
            "wget http://repository.shadow.tech/testing/pool/main/s/shadow-alpha/shadow-alpha-amd64.deb -O ~/.cache/deb2appimage/debs/shadow.deb && cd ~/.cache/deb2appimage/debs/ && echo \"NotProvided\" > ~/.cache/deb2appimage/AppDir/CHANGELOG.md"
        ],
        "name": "shadowresurrected-alpha",
        "version": "linux",
        "deps": "libldap-2.4-2,libssh2-1,libglvnd0,libffi7,libapparmor1,libmtdev1,libsndfile1,libsystemd0,libx11-xcb1,libasyncns0,libpulse0,libevdev2,libwacom2,libxcb1,libxcb-util1,libxcb-randr0,libxcb-render0,libxcb-render-util0,libxcb-image0,libxcb-keysyms1,libxcb-xinput0,libxcb-cursor0,libva2,libva-drm2,libva-glx2,libva-x11-2,libinput10,libcurl4,libva-wayland2,libwayland-server0,libwayland-egl1,libwayland-client0,libwayland-cursor0,libpulse0,libgtk-3-0,libasound2,libgbm1,libnspr4,libnss3,libvdpau1,libxss1,libgles2,libsdl2-2.0-0,libzstd1,libwrap0,libnghttp2-14,libidn2-0,librtmp1,libpsl5,libbrotli1,libgudev-1.0-0,liblz4-1,libnsl2,libopus0,libflac8,libunistring2,libgnutls30,libhogweed6,libnettle8,libgmp10,libsasl2-2,libtirpc3,libtasn1-6,libepoxy0,libfribidi0,libsecret-1-0",
        "repoarch": "amd64",
        "distrorepo": "debian",
        "repoversion": "bullseye",
        "binarypath": "/usr/share/shadow-alpha/shadow-launcher",
        "desktoppath": "/usr/share/applications/shadow-client-testing.desktop",
        "iconpath": "/usr/share/shadow-alpha/resources/app.asar.unpacked/release/main/assets/icons/testing/shadow-testing.png",
        "usewrapper": "true",
        "postrun": [
            "cp $CI_PROJECT_DIR/wrapper.sh ~/.cache/deb2appimage/AppDir/ && chmod a+x ~/.cache/deb2appimage/AppDir/wrapper.sh",
            "echo $CI_COMMIT_REF_NAME > ~/.cache/deb2appimage/AppDir/shadow-appimage-version"
        ]
    }
    ],
    "apprunconf": [
    {
        "setpath": "true",
        "setlibpath": "true",
        "setpythonpath": "false",
        "setpythonhome": "false",
        "setpythondontwritebytecode": "false",
        "setxdgdatadirs": "false",
        "setperllib": "false",
        "setgsettingsschemadir": "false",
        "exec": "/wrapper.sh"
    }
    ],
    "authors": [
    {
        "type": "Author",
        "author": "Shadow",
        "url": "https://shadow.tech"
    },
    {
        "type": "AppImage Maintainer",
        "author": "Alex^",
        "url": "https://gitlab.com/aar642/shadow-appimage/"
    }
    ]
}
